^C:\USERS\YOON KIM\DOCUMENTS\GITLABREPOSITORY\DATASTRUCTURE\QUEUE\QUEUE\QUEUE\QUEUE.CPP
C:\USERS\YOON KIM\DOCUMENTS\GITLABREPOSITORY\DATASTRUCTURE\QUEUE\QUEUE\QUEUE\DEBUG\VC142.PDB
C:\USERS\YOON KIM\DOCUMENTS\GITLABREPOSITORY\DATASTRUCTURE\QUEUE\QUEUE\QUEUE\DEBUG\VC142.IDB
C:\USERS\YOON KIM\DOCUMENTS\GITLABREPOSITORY\DATASTRUCTURE\QUEUE\QUEUE\QUEUE\DEBUG\QUEUE.OBJ
