^C:\USERS\YOON KIM\DOCUMENTS\GITLABREPOSITORY\DATASTRUCTURE\STACK\STACK\STACK\DEBUG\STACK.OBJ
C:\USERS\YOON KIM\DOCUMENTS\GITLABREPOSITORY\DATASTRUCTURE\STACK\STACK\DEBUG\STACK.EXE
C:\USERS\YOON KIM\DOCUMENTS\GITLABREPOSITORY\DATASTRUCTURE\STACK\STACK\DEBUG\STACK.ILK
C:\USERS\YOON KIM\DOCUMENTS\GITLABREPOSITORY\DATASTRUCTURE\STACK\STACK\DEBUG\STACK.PDB
