^C:\USERS\YOON KIM\DOCUMENTS\GITLABREPOSITORY\DATASTRUCTURE\STACK\STACK\STACKWITHCLASS\DEBUG\STACKWITHCLASS.OBJ
C:\USERS\YOON KIM\DOCUMENTS\GITLABREPOSITORY\DATASTRUCTURE\STACK\STACK\DEBUG\STACKWITHCLASS.EXE
C:\USERS\YOON KIM\DOCUMENTS\GITLABREPOSITORY\DATASTRUCTURE\STACK\STACK\DEBUG\STACKWITHCLASS.ILK
C:\USERS\YOON KIM\DOCUMENTS\GITLABREPOSITORY\DATASTRUCTURE\STACK\STACK\DEBUG\STACKWITHCLASS.PDB
